<?xml version="1.0" encoding="utf-8"?>
<!-- Generator: Adobe Illustrator 27.2.0, SVG Export Plug-In . SVG Version: 6.00 Build 0)  -->
<svg version="1.1" id="Capa_1" xmlns="http://www.w3.org/2000/svg" xmlns:xlink="http://www.w3.org/1999/xlink" x="0px" y="0px"
	 viewBox="0 0 318 83" style="enable-background:new 0 0 318 83;" xml:space="preserve">
<style type="text/css">
	.st0{fill:#FFFFFF;}
</style>
<g transform="translate(0.000000,500.000000) scale(0.100000,-0.100000)">
	<path class="st0" d="M125,4981c-22-10-52-31-67-47c-54-58-58-82-58-349c0-302,5-320,109-387l45-28h274h274l47,25
		c49,27,90,78,109,134c18,53,16,454-3,517c-17,58-56,104-113,133c-39,20-57,21-309,21C193,5000,161,4998,125,4981z M715,4951
		c51-23,102-81,110-123c3-18,5-140,3-270c-3-264-2-257-82-322l-38-31l-256-3c-217-3-262-1-298,13c-52,20-99,71-113,122
		c-14,49-14,447-1,495c14,50,55,97,105,119c35,16,69,19,285,19S680,4967,715,4951z"/>
	<path class="st0" d="M240,4591v-151h60h60v45v45h53c62,0,93-18,102-60c6-29,8-30,66-30h59l-7,33c-3,17-14,41-24,53
		c-19,20-19,21,6,44c17,16,25,34,25,57c0,86-42,104-247,111l-153,5V4591z M512,4652c9-9,10-17,2-30c-9-13-28-18-83-20l-71-3v37v36
		l70-4C468,4666,505,4659,512,4652z"/>
	<path class="st0" d="M1065,4729c-129-48-135-223-9-275c20-8,68-14,116-14c107,1,158,22,187,79c25,48,26,78,5,131
		c-25,62-69,84-179,87C1136,4738,1082,4735,1065,4729z M1238,4634c28-32,23-68-14-101c-53-48-134-13-134,56
		C1090,4667,1184,4695,1238,4634z"/>
	<path class="st0" d="M1505,4721c-62-28-79-53-83-125c-4-59-2-65,28-99c38-44,80-57,180-57c84,0,147,22,174,61c28,41,21,49-41,49
		c-37,0-62-5-74-16c-10-9-35-18-57-21c-34-5-45-1-66,20c-74,74,18,172,109,118c46-27,145-30,145-5c0,24-57,72-98,84
		C1662,4746,1550,4742,1505,4721z"/>
	<path class="st0" d="M1880,4590v-150h60h60v60v59l93,3c91,3,92,3,92,28s-1,25-92,28s-93,3-93,27v25h110h110v35v35h-170h-170V4590z"
		/>
	<path class="st0" d="M2343,4595c-51-79-93-147-93-150s26-5,58-5c53,0,60,2,70,25c11,24,15,25,110,25s99-1,112-25c12-22,20-25,72-25
		c32,0,58,3,58,6c0,4-42,71-92,150l-93,144h-55h-55L2343,4595z M2518,4611c12-21,22-41,22-45c0-3-22-6-50-6c-27,0-50,3-50,6
		c0,11,43,84,50,84C2493,4650,2506,4633,2518,4611z"/>
	<path class="st0" d="M2780,4591v-151h60h60v45v45h51c63,0,85-12,104-55c14-34,16-35,69-35h56l-7,33c-3,17-14,41-24,53
		c-19,20-19,21,6,44c17,16,25,34,25,57c0,86-42,104-247,111l-153,5V4591z M3030,4661c28-8,39-39,18-52c-7-5-43-9-80-9h-68v35v35
		l53-1C2981,4668,3016,4665,3030,4661z"/>
</g>
</svg>
